[ {
  "id" : "952543b7-871e-30ff-cea8-f1b6fcf81e2e",
  "name" : "alignment",
  "display_width" : null,
  "label" : "Alignment",
  "required" : true,
  "locked" : false,
  "display" : "select",
  "choices" : [ [ "left", "Left" ], [ "center", "Center" ], [ "right", "Right" ] ],
  "multiple" : false,
  "reordering_enabled" : true,
  "preset" : null,
  "type" : "choice",
  "default" : "center"
}, {
  "id" : "48b7b852-efa6-300d-fbf0-f8a458969058",
  "name" : "enable_icon",
  "display_width" : null,
  "label" : "Enable Icon",
  "required" : false,
  "locked" : false,
  "display" : "checkbox",
  "type" : "boolean",
  "default" : false
}, {
  "id" : "89e30b92-c9b4-383a-c424-70aca1608563",
  "name" : "icon",
  "display_width" : null,
  "label" : "Icon",
  "required" : false,
  "locked" : false,
  "visibility" : {
    "controlling_field" : "48b7b852-efa6-300d-fbf0-f8a458969058",
    "controlling_field_path" : null,
    "controlling_value_regex" : "true",
    "property" : null,
    "operator" : "EQUAL",
    "access" : null
  },
  "icon_set" : "fontawesome-5.0.10",
  "type" : "icon",
  "default" : {
    "name" : "university",
    "unicode" : "f19c",
    "type" : "SOLID"
  }
}, {
  "id" : "69c486d8-2e87-deb9-b49c-3274d795620e",
  "name" : "icon_color",
  "display_width" : null,
  "label" : "Icon Color",
  "required" : true,
  "locked" : false,
  "visibility" : {
    "controlling_field" : "48b7b852-efa6-300d-fbf0-f8a458969058",
    "controlling_field_path" : null,
    "controlling_value_regex" : "true",
    "property" : null,
    "operator" : "EQUAL",
    "access" : null
  },
  "display" : "select",
  "choices" : [ [ "primary", "Primary" ], [ "secondary", "Secondary" ], [ "light", "Light" ], [ "dark", "Dark" ], [ "light-gray", "Light Gray" ], [ "dark-gray", "Dark Gray" ], [ "link", "Link" ] ],
  "multiple" : false,
  "reordering_enabled" : true,
  "preset" : null,
  "type" : "choice",
  "default" : "primary"
}, {
  "id" : "2c755f13-6bb5-1e1e-12dc-82e85d7dc4e1",
  "name" : "number",
  "display_width" : null,
  "label" : "Number",
  "required" : false,
  "locked" : false,
  "display" : "text",
  "step" : 1,
  "prefix" : "",
  "suffix" : "",
  "type" : "number",
  "default" : 100
}, {
  "id" : "5894fe02-2c9b-2143-84c5-3844a480315a",
  "name" : "number_color",
  "display_width" : null,
  "label" : "Number Color",
  "required" : true,
  "locked" : false,
  "display" : "select",
  "choices" : [ [ "primary", "Primary" ], [ "secondary", "Secondary" ], [ "light", "Light" ], [ "dark", "Dark" ], [ "light-gray", "Light Gray" ], [ "dark-gray", "Dark Gray" ], [ "link", "Link" ] ],
  "multiple" : false,
  "reordering_enabled" : true,
  "preset" : null,
  "type" : "choice",
  "default" : "primary"
}, {
  "id" : "c7bf50b8-9bcf-a065-1f10-7144cea40a24",
  "name" : "prefix",
  "display_width" : null,
  "label" : "Prefix",
  "required" : false,
  "locked" : false,
  "validation_regex" : "",
  "allow_new_line" : false,
  "show_emoji_picker" : false,
  "type" : "text",
  "default" : "Up to"
}, {
  "id" : "6966c34b-fa5e-1be9-f8c9-432be7c80c7a",
  "name" : "suffix",
  "display_width" : null,
  "label" : "Suffix",
  "required" : false,
  "locked" : false,
  "validation_regex" : "",
  "allow_new_line" : false,
  "show_emoji_picker" : false,
  "type" : "text",
  "default" : "%"
}, {
  "id" : "b49a05ac-c0ee-dcd0-33be-9c1e5a8e7c79",
  "name" : "top_text",
  "display_width" : null,
  "label" : "Top Text",
  "required" : false,
  "locked" : false,
  "validation_regex" : "",
  "allow_new_line" : false,
  "show_emoji_picker" : false,
  "type" : "text",
  "default" : "Top text"
}, {
  "id" : "33c8548b-ac10-ddbf-ff4a-002dc3a841fa",
  "name" : "bottom_text",
  "display_width" : null,
  "label" : "Bottom Text",
  "required" : false,
  "locked" : false,
  "validation_regex" : "",
  "allow_new_line" : false,
  "show_emoji_picker" : false,
  "type" : "text",
  "default" : "Bottom text"
}, {
  "id" : "0718d37b-ffd8-ca99-da08-82a026be806b",
  "name" : "text_color",
  "display_width" : null,
  "label" : "Text Color",
  "required" : true,
  "locked" : false,
  "display" : "select",
  "choices" : [ [ "default", "Default" ], [ "dark", "Dark" ], [ "light", "Light" ] ],
  "multiple" : false,
  "reordering_enabled" : true,
  "preset" : null,
  "type" : "choice",
  "default" : "default"
}, {
  "id" : "309058b0-6c8f-73a5-bd88-3e025b566c77",
  "name" : "enable_animation",
  "display_width" : null,
  "label" : "Enable Animation",
  "required" : false,
  "locked" : false,
  "display" : "checkbox",
  "type" : "boolean",
  "default" : true
}, {
  "id" : "3b52e03a-f063-894b-4e85-0a9feaf5ce52",
  "name" : "animation_settings",
  "display_width" : null,
  "label" : "Animation Settings",
  "required" : false,
  "locked" : false,
  "visibility" : {
    "controlling_field" : "309058b0-6c8f-73a5-bd88-3e025b566c77",
    "controlling_field_path" : null,
    "controlling_value_regex" : "true",
    "property" : null,
    "operator" : "EQUAL",
    "access" : null
  },
  "children" : [ {
    "id" : "66adcda9-92d4-b970-0ed9-8c32acbdd551",
    "name" : "animation_type",
    "display_width" : null,
    "label" : "Animation Type",
    "required" : true,
    "locked" : false,
    "display" : "select",
    "choices" : [ [ "default", "default" ], [ "fade", "fade" ], [ "fade-up", "fade-up" ], [ "fade-down", "fade-down" ], [ "fade-left", "fade-left" ], [ "fade-right", "fade-right" ], [ "fade-up-right", "fade-up-right" ], [ "fade-up-left", "fade-up-left" ], [ "fade-down-right", "fade-down-right" ], [ "fade-down-left", "fade-down-left" ], [ "flip-up", "flip-up" ], [ "flip-down", "flip-down" ], [ "flip-left", "flip-left" ], [ "flip-right", "flip-right" ], [ "slide-up", "slide-up" ], [ "slide-down", "slide-down" ], [ "slide-left", "slide-left" ], [ "slide-right", "slide-right" ], [ "zoom-in", "zoom-in" ], [ "zoom-in-up", "zoom-in-up" ], [ "zoom-in-down", "zoom-in-down" ], [ "zoom-in-left", "zoom-in-left" ], [ "zoom-in-right", "zoom-in-right" ], [ "zoom-out", "zoom-out" ], [ "zoom-out-up", "zoom-out-up" ], [ "zoom-out-down", "zoom-out-down" ], [ "zoom-out-left", "zoom-out-left" ], [ "zoom-out-right", "zoom-out-right" ] ],
    "multiple" : false,
    "reordering_enabled" : true,
    "preset" : null,
    "type" : "choice",
    "default" : "default"
  }, {
    "id" : "9b7074b4-b183-ae97-b8a1-46aec27d963c",
    "name" : "animation_delay",
    "display_width" : null,
    "label" : "Animation Delay",
    "required" : true,
    "locked" : false,
    "display" : "text",
    "min" : 0,
    "max" : 3000,
    "step" : 50,
    "suffix" : "ms",
    "type" : "number",
    "default" : 150
  }, {
    "id" : "b39cc6cd-f3bc-dfbc-bd06-798fa5d5a5dd",
    "name" : "override_default_animation_duration",
    "display_width" : null,
    "label" : "Override Default Animation Duration",
    "required" : false,
    "locked" : false,
    "display" : "checkbox",
    "type" : "boolean",
    "default" : false
  }, {
    "id" : "1348d313-102b-583d-af6c-a59be606e664",
    "name" : "animation_duration",
    "display_width" : null,
    "label" : "Animation Duration",
    "required" : true,
    "locked" : false,
    "visibility" : {
      "controlling_field" : "b39cc6cd-f3bc-dfbc-bd06-798fa5d5a5dd",
      "controlling_field_path" : null,
      "controlling_value_regex" : "true",
      "property" : null,
      "operator" : "EQUAL",
      "access" : null
    },
    "display" : "text",
    "min" : 0,
    "max" : 3000,
    "step" : 50,
    "suffix" : "ms",
    "type" : "number",
    "default" : 600
  } ],
  "tab" : "CONTENT",
  "expanded" : false,
  "type" : "group",
  "default" : {
    "animation_type" : "default",
    "animation_delay" : 150,
    "override_default_animation_duration" : false,
    "animation_duration" : 600
  }
}, {
  "id" : "3d3a8f8d-9463-fbe7-a4e2-d5f4b3ec5611",
  "name" : "enable_sticky_column",
  "display_width" : null,
  "label" : "Enable Sticky Column",
  "required" : false,
  "locked" : false,
  "display" : "checkbox",
  "type" : "boolean",
  "default" : false
}, {
  "id" : "6da03473-70a1-9e6b-095f-87d2c9e513f2",
  "name" : "custom_class",
  "display_width" : null,
  "label" : "Custom Class",
  "required" : false,
  "locked" : false,
  "validation_regex" : "",
  "allow_new_line" : false,
  "show_emoji_picker" : false,
  "type" : "text"
}, {
  "id" : "5835662d-6cf1-01bc-a58b-4c35f16fd202",
  "name" : "style",
  "display_width" : null,
  "label" : "Style",
  "required" : false,
  "locked" : false,
  "children" : [ {
    "id" : "c0834f97-a6b2-a0e6-5122-4e836d4fd3f0",
    "name" : "spacing",
    "display_width" : null,
    "label" : "Spacing",
    "required" : false,
    "locked" : false,
    "children" : [ {
      "id" : "ccf8bc70-408a-1954-d50f-26128f12f238",
      "name" : "spacing",
      "display_width" : null,
      "label" : "Spacing",
      "required" : false,
      "locked" : false,
      "type" : "spacing",
      "default" : { }
    } ],
    "tab" : "STYLE",
    "expanded" : false,
    "type" : "group",
    "default" : {
      "spacing" : { }
    }
  }, {
    "id" : "13d0de8f-222c-4d35-8814-ad4e448ebc1a",
    "name" : "background",
    "display_width" : null,
    "label" : "Background",
    "required" : false,
    "locked" : false,
    "children" : [ {
      "id" : "3fa4b59d-082a-e392-316e-ef543c6c9069",
      "name" : "background_type",
      "display_width" : null,
      "label" : "Background Type",
      "required" : false,
      "locked" : false,
      "display" : "select",
      "choices" : [ [ "none", "None" ], [ "color", "Color" ], [ "gradient", "Gradient" ], [ "image", "Image" ] ],
      "multiple" : false,
      "reordering_enabled" : true,
      "preset" : null,
      "type" : "choice"
    }, {
      "id" : "a7705dbc-66a4-f8f4-a27d-7006e060f7d4",
      "name" : "background_color",
      "display_width" : null,
      "label" : "Background Color",
      "required" : false,
      "locked" : false,
      "visibility" : {
        "controlling_field" : "3fa4b59d-082a-e392-316e-ef543c6c9069",
        "controlling_field_path" : null,
        "controlling_value_regex" : "color",
        "property" : null,
        "operator" : "EQUAL",
        "access" : null
      },
      "type" : "color",
      "default" : {
        "color" : null,
        "opacity" : null
      }
    }, {
      "id" : "81c7e022-0ae0-dc12-3ecc-4334258d6caa",
      "name" : "background_gradient",
      "display_width" : null,
      "label" : "Background Gradient",
      "required" : false,
      "locked" : false,
      "visibility" : {
        "controlling_field" : "3fa4b59d-082a-e392-316e-ef543c6c9069",
        "controlling_field_path" : null,
        "controlling_value_regex" : "gradient",
        "property" : null,
        "operator" : "EQUAL",
        "access" : null
      },
      "type" : "gradient",
      "default" : { }
    }, {
      "id" : "7993037c-023c-e589-6bc9-ed077f026f35",
      "name" : "background_image",
      "display_width" : null,
      "label" : "Background Image",
      "required" : false,
      "locked" : false,
      "visibility" : {
        "controlling_field" : "3fa4b59d-082a-e392-316e-ef543c6c9069",
        "controlling_field_path" : null,
        "controlling_value_regex" : "image",
        "property" : null,
        "operator" : "EQUAL",
        "access" : null
      },
      "type" : "backgroundimage",
      "default" : {
        "src" : "",
        "background_position" : "MIDDLE_CENTER",
        "background_size" : "cover"
      }
    } ],
    "tab" : "STYLE",
    "expanded" : false,
    "type" : "group",
    "default" : {
      "background_color" : {
        "color" : null,
        "opacity" : null
      },
      "background_gradient" : { },
      "background_image" : {
        "src" : "",
        "background_position" : "MIDDLE_CENTER",
        "background_size" : "cover"
      }
    }
  }, {
    "id" : "96063191-a356-d767-4fc4-611e18f7f454",
    "name" : "custom_styling",
    "display_width" : null,
    "label" : "Custom Styling",
    "required" : false,
    "locked" : false,
    "children" : [ {
      "id" : "36693ee8-a332-70fc-9357-e25e1b9f9472",
      "name" : "icon_color",
      "display_width" : null,
      "label" : "Icon Color",
      "required" : false,
      "locked" : false,
      "type" : "color",
      "default" : {
        "color" : null,
        "opacity" : null
      }
    }, {
      "id" : "d2681e61-25f4-1294-6683-f3ad7c3d8ac2",
      "name" : "number_color",
      "display_width" : null,
      "label" : "Number Color",
      "required" : false,
      "locked" : false,
      "type" : "color",
      "default" : {
        "color" : null,
        "opacity" : null
      }
    }, {
      "id" : "e1409658-4fef-aa95-24dd-0cbf3dc36d08",
      "name" : "text_color",
      "display_width" : null,
      "label" : "Text Color",
      "required" : false,
      "locked" : false,
      "type" : "color",
      "default" : {
        "color" : null,
        "opacity" : null
      }
    } ],
    "tab" : "STYLE",
    "expanded" : false,
    "type" : "group",
    "default" : {
      "icon_color" : {
        "color" : null,
        "opacity" : null
      },
      "number_color" : {
        "color" : null,
        "opacity" : null
      },
      "text_color" : {
        "color" : null,
        "opacity" : null
      }
    }
  } ],
  "tab" : "STYLE",
  "expanded" : false,
  "type" : "group",
  "default" : {
    "spacing" : {
      "spacing" : { }
    },
    "background" : {
      "background_color" : {
        "color" : null,
        "opacity" : null
      },
      "background_gradient" : { },
      "background_image" : {
        "src" : "",
        "background_position" : "MIDDLE_CENTER",
        "background_size" : "cover"
      }
    },
    "custom_styling" : {
      "icon_color" : {
        "color" : null,
        "opacity" : null
      },
      "number_color" : {
        "color" : null,
        "opacity" : null
      },
      "text_color" : {
        "color" : null,
        "opacity" : null
      }
    }
  }
}, {
  "id" : "73e2e74b-b357-e481-0e68-8985e24f46d4",
  "name" : "custom_id",
  "display_width" : null,
  "label" : "Custom ID",
  "required" : false,
  "locked" : false,
  "validation_regex" : "",
  "allow_new_line" : false,
  "show_emoji_picker" : false,
  "type" : "text"
} ]