<svg width="64" height="64" viewBox="0 0 64 64" fill="none" xmlns="http://www.w3.org/2000/svg">
<path d="M50.8999 18.5H13.1C10.13 18.5 7.69995 20.93 7.69995 23.9V40.1C7.69995 43.07 10.13 45.5 13.1 45.5H50.8999C53.8699 45.5 56.2999 43.07 56.2999 40.1V23.9C56.2999 20.93 53.8699 18.5 50.8999 18.5ZM53.5999 37.4C53.5999 39.02 52.5199 40.1 50.8999 40.1H13.1C11.48 40.1 10.4 39.02 10.4 37.4V23.9C10.4 22.28 11.48 21.2 13.1 21.2H50.8999C52.5199 21.2 53.5999 22.28 53.5999 23.9V37.4Z" fill="#003B95"/>
</svg>
