<svg width="64" height="64" viewBox="0 0 64 64" fill="none" xmlns="http://www.w3.org/2000/svg">
<path d="M53.5588 51C53.9644 51.0002 54.3661 50.9205 54.7408 50.7656C55.1156 50.6107 55.4561 50.3835 55.7428 50.0971C56.0296 49.8107 56.257 49.4707 56.4121 49.0965C56.5672 48.7223 56.6469 48.3213 56.6467 47.9163V16.0837C56.6469 15.6787 56.5672 15.2777 56.4121 14.9035C56.257 14.5293 56.0296 14.1893 55.7428 13.9029C55.4561 13.6165 55.1156 13.3893 54.7408 13.2344C54.3661 13.0795 53.9644 12.9998 53.5588 13H9.44097C9.03535 12.9998 8.63367 13.0795 8.25889 13.2344C7.88411 13.3893 7.54358 13.6164 7.25676 13.9028C6.96994 14.1892 6.74245 14.5292 6.5873 14.9034C6.43215 15.2776 6.35238 15.6787 6.35254 16.0837V47.9163C6.35238 48.3213 6.43215 48.7224 6.5873 49.0966C6.74245 49.4708 6.96994 49.8108 7.25676 50.0972C7.54358 50.3835 7.88411 50.6107 8.25889 50.7656C8.63367 50.9205 9.03535 51.0002 9.44097 51H53.5588ZM50.4704 44.8326H12.5282V19.1674H50.4704V44.8326V44.8326Z" fill="#003B95"/>
<path d="M40.9996 31.4397L33.1741 35.6303L25.3525 39.8233V23.0586L33.1741 27.2522L40.9996 31.4397Z" fill="#003B95"/>
</svg>
