<svg width="64" height="64" viewBox="0 0 64 64" fill="none" xmlns="http://www.w3.org/2000/svg">
<path d="M46.5833 25.7499C45.2938 25.7536 44.037 26.1558 42.9852 26.9018C41.9334 27.6478 41.1381 28.7008 40.7083 29.9165H13.25C12.6974 29.9165 12.1675 30.1361 11.7768 30.5268C11.3861 30.9175 11.1666 31.4474 11.1666 31.9999C11.1666 32.5525 11.3861 33.0823 11.7768 33.473C12.1675 33.8637 12.6974 34.0833 13.25 34.0833H40.7083C41.0905 35.1643 41.7627 36.1192 42.6513 36.8438C43.5399 37.5684 44.6107 38.0344 45.7465 38.1912C46.8824 38.3479 48.0394 38.1891 49.091 37.7323C50.1427 37.2755 51.0484 36.5383 51.709 35.6012C52.3697 34.6641 52.7598 33.5633 52.8368 32.4193C52.9137 31.2753 52.6745 30.1322 52.1452 29.1151C51.616 28.098 50.8172 27.246 49.8362 26.6525C48.8552 26.059 47.7299 25.7467 46.5833 25.7499ZM13.25 21.5833H15.7083C16.1462 22.7898 16.945 23.8323 17.9961 24.569C19.0473 25.3057 20.2997 25.7008 21.5833 25.7008C22.8669 25.7008 24.1193 25.3057 25.1704 24.569C26.2216 23.8323 27.0204 22.7898 27.4583 21.5833H50.75C51.3025 21.5833 51.8324 21.3638 52.2231 20.9731C52.6138 20.5824 52.8333 20.0525 52.8333 19.4999C52.8333 18.9474 52.6138 18.4175 52.2231 18.0268C51.8324 17.6361 51.3025 17.4165 50.75 17.4165H27.4583C27.0204 16.2099 26.2216 15.1676 25.1704 14.4309C24.1193 13.6942 22.8669 13.299 21.5833 13.299C20.2997 13.299 19.0473 13.6942 17.9961 14.4309C16.945 15.1676 16.1462 16.2099 15.7083 17.4165H13.25C12.6974 17.4165 12.1675 17.6361 11.7768 18.0268C11.3861 18.4175 11.1666 18.9474 11.1666 19.4999C11.1666 20.0525 11.3861 20.5824 11.7768 20.9731C12.1675 21.3638 12.6974 21.5833 13.25 21.5833ZM50.75 42.4165H35.7916C35.3537 41.2099 34.5549 40.1676 33.5038 39.4309C32.4527 38.6942 31.2002 38.2989 29.9166 38.2989C28.633 38.2989 27.3806 38.6942 26.3295 39.4309C25.2784 40.1676 24.4796 41.2099 24.0416 42.4165H13.25C12.6974 42.4165 12.1675 42.636 11.7768 43.0267C11.3861 43.4174 11.1666 43.9474 11.1666 44.4999C11.1666 45.0525 11.3861 45.5823 11.7768 45.973C12.1675 46.3637 12.6974 46.5833 13.25 46.5833H24.0416C24.4796 47.7898 25.2784 48.8323 26.3295 49.569C27.3806 50.3057 28.633 50.7009 29.9166 50.7009C31.2002 50.7009 32.4527 50.3057 33.5038 49.569C34.5549 48.8323 35.3537 47.7898 35.7916 46.5833H50.75C51.3025 46.5833 51.8324 46.3637 52.2231 45.973C52.6138 45.5823 52.8333 45.0525 52.8333 44.4999C52.8333 43.9474 52.6138 43.4174 52.2231 43.0267C51.8324 42.636 51.3025 42.4165 50.75 42.4165Z" fill="#003B95"/>
</svg>
