<svg width="64" height="64" viewBox="0 0 64 64" fill="none" xmlns="http://www.w3.org/2000/svg">
<path d="M51.8043 44.8043H21.6522C21.425 44.8043 21.2391 44.9902 21.2391 45.2174V48.1087C21.2391 48.3359 21.425 48.5217 21.6522 48.5217H51.8043C52.0315 48.5217 52.2174 48.3359 52.2174 48.1087V45.2174C52.2174 44.9902 52.0315 44.8043 51.8043 44.8043ZM51.8043 15.4783H21.6522C21.425 15.4783 21.2391 15.6641 21.2391 15.8913V18.7826C21.2391 19.0098 21.425 19.1957 21.6522 19.1957H51.8043C52.0315 19.1957 52.2174 19.0098 52.2174 18.7826V15.8913C52.2174 15.6641 52.0315 15.4783 51.8043 15.4783ZM51.8043 30.1413H21.6522C21.425 30.1413 21.2391 30.3272 21.2391 30.5543V33.4457C21.2391 33.6728 21.425 33.8587 21.6522 33.8587H51.8043C52.0315 33.8587 52.2174 33.6728 52.2174 33.4457V30.5543C52.2174 30.3272 52.0315 30.1413 51.8043 30.1413ZM15.4565 42.3261H9.46739C9.3538 42.3261 9.26086 42.419 9.26086 42.5326V44.288C9.26086 44.4016 9.3538 44.4946 9.46739 44.4946H13.2054V45.553H11.3622C11.2486 45.553 11.1557 45.6459 11.1557 45.7595V47.5149C11.1557 47.6285 11.2486 47.7215 11.3622 47.7215H13.2054V48.8315H9.46739C9.3538 48.8315 9.26086 48.9245 9.26086 49.038V50.7935C9.26086 50.9071 9.3538 51 9.46739 51H15.4565C15.5701 51 15.663 50.9071 15.663 50.7935V42.5326C15.663 42.419 15.5701 42.3261 15.4565 42.3261ZM9.46739 15.2717H11.4293V21.4674C11.4293 21.581 11.5223 21.6739 11.6359 21.6739H13.7011C13.8147 21.6739 13.9076 21.581 13.9076 21.4674V13.413C13.9076 13.1859 13.7217 13 13.4946 13H9.46739C9.3538 13 9.26086 13.0929 9.26086 13.2065V15.0652C9.26086 15.1788 9.3538 15.2717 9.46739 15.2717ZM15.4565 27.663H9.46739C9.3538 27.663 9.26086 27.756 9.26086 27.8696V29.7283C9.26086 29.8418 9.3538 29.9348 9.46739 29.9348H12.9989L9.36929 33.9465C9.30083 34.0234 9.26234 34.1223 9.26086 34.2253V36.1304C9.26086 36.244 9.3538 36.337 9.46739 36.337H15.4565C15.5701 36.337 15.663 36.244 15.663 36.1304V34.2717C15.663 34.1582 15.5701 34.0652 15.4565 34.0652H11.925L15.5546 30.0535C15.6231 29.9766 15.6616 29.8777 15.663 29.7747V27.8696C15.663 27.756 15.5701 27.663 15.4565 27.663Z" fill="#003B95"/>
</svg>
