<svg width="64" height="64" viewBox="0 0 64 64" fill="none" xmlns="http://www.w3.org/2000/svg">
<path d="M32 30C34.6522 30 37.1957 31.0536 39.0711 32.9289C40.9464 34.8043 42 37.3478 42 40V52H22V40C22 37.3478 23.0536 34.8043 24.9289 32.9289C26.8043 31.0536 29.3478 30 32 30ZM18.576 36.012C18.2577 37.0856 18.0697 38.1935 18.016 39.312L18 40V52H12V43C11.9996 41.2751 12.6361 39.6109 13.7873 38.3264C14.9385 37.042 16.5234 36.2278 18.238 36.04L18.576 36.012ZM45.424 36.012C47.2038 36.1205 48.8752 36.9039 50.0972 38.2025C51.3192 39.501 51.9997 41.2169 52 43V52H46V40C46 38.614 45.8 37.276 45.424 36.012ZM19 24C20.3261 24 21.5979 24.5268 22.5355 25.4645C23.4732 26.4021 24 27.6739 24 29C24 30.3261 23.4732 31.5979 22.5355 32.5355C21.5979 33.4732 20.3261 34 19 34C17.6739 34 16.4021 33.4732 15.4645 32.5355C14.5268 31.5979 14 30.3261 14 29C14 27.6739 14.5268 26.4021 15.4645 25.4645C16.4021 24.5268 17.6739 24 19 24ZM45 24C46.3261 24 47.5979 24.5268 48.5355 25.4645C49.4732 26.4021 50 27.6739 50 29C50 30.3261 49.4732 31.5979 48.5355 32.5355C47.5979 33.4732 46.3261 34 45 34C43.6739 34 42.4021 33.4732 41.4645 32.5355C40.5268 31.5979 40 30.3261 40 29C40 27.6739 40.5268 26.4021 41.4645 25.4645C42.4021 24.5268 43.6739 24 45 24ZM32 12C34.1217 12 36.1566 12.8429 37.6569 14.3431C39.1571 15.8434 40 17.8783 40 20C40 22.1217 39.1571 24.1566 37.6569 25.6569C36.1566 27.1571 34.1217 28 32 28C29.8783 28 27.8434 27.1571 26.3431 25.6569C24.8429 24.1566 24 22.1217 24 20C24 17.8783 24.8429 15.8434 26.3431 14.3431C27.8434 12.8429 29.8783 12 32 12Z" fill="#003B95"/>
</svg>
