[ {
  "id" : "06176017-09f1-3627-74c3-0131f47d8a9f",
  "name" : "form_field_color",
  "display_width" : null,
  "label" : "Form Field Color",
  "required" : true,
  "locked" : false,
  "display" : "select",
  "choices" : [ [ "default", "Default" ], [ "dark", "Dark" ], [ "light", "Light" ], [ "transparent-dark", "Transparent Dark" ], [ "transparent-light", "Transparent Light" ] ],
  "multiple" : false,
  "reordering_enabled" : true,
  "preset" : null,
  "type" : "choice",
  "default" : "default"
}, {
  "id" : "65918bac-01d5-c3d4-b2f6-f0a09969a52c",
  "name" : "form_background_color",
  "display_width" : null,
  "label" : "Form Background Color",
  "required" : true,
  "locked" : false,
  "display" : "select",
  "choices" : [ [ "default", "Default" ], [ "dark", "Dark" ], [ "light", "Light" ], [ "transparent", "Transparent" ] ],
  "multiple" : false,
  "reordering_enabled" : true,
  "preset" : null,
  "type" : "choice",
  "default" : "default"
}, {
  "id" : "c3ba6d4c-d775-919b-109e-6ef7fbac953f",
  "name" : "form_padding",
  "display_width" : null,
  "label" : "Form Padding",
  "required" : false,
  "locked" : false,
  "display" : "toggle",
  "type" : "boolean",
  "default" : true
}, {
  "id" : "b2901e1b-7efd-bd32-2e21-3457890fc4ee",
  "name" : "form_border",
  "display_width" : null,
  "label" : "Form Border",
  "required" : false,
  "locked" : false,
  "display" : "toggle",
  "type" : "boolean",
  "default" : false
}, {
  "id" : "9101a960-7eec-e3c2-4c18-81d9469af1cc",
  "name" : "form_labels",
  "display_width" : null,
  "label" : "Form Labels",
  "required" : false,
  "locked" : false,
  "display" : "toggle",
  "type" : "boolean",
  "default" : true
}, {
  "id" : "20280bb1-4e26-7db1-7747-646ea68e259e",
  "name" : "form_title",
  "display_width" : null,
  "label" : "Form Title",
  "required" : false,
  "locked" : false,
  "validation_regex" : "",
  "allow_new_line" : false,
  "show_emoji_picker" : false,
  "type" : "text"
}, {
  "id" : "1215b69b-7bb7-fee5-18f2-b0e9de23de1d",
  "name" : "form",
  "display_width" : null,
  "label" : "Form",
  "required" : false,
  "locked" : false,
  "type" : "form",
  "default" : {
    "response_type" : "inline",
    "message" : "Thanks for submitting the form."
  }
}, {
  "id" : "04b5e1db-e0f0-c594-9a61-272cebd4a244",
  "name" : "notifications_are_overridden",
  "display_width" : null,
  "label" : "Send form notifications to specified email addresses instead of the form defaults",
  "required" : false,
  "locked" : false,
  "display" : "checkbox",
  "type" : "boolean",
  "default" : false
}, {
  "id" : "c975b26e-fbb9-4942-4bcb-89a4ae381367",
  "name" : "notifications_override_email_addresses",
  "display_width" : null,
  "label" : "Email Addresses",
  "required" : false,
  "locked" : false,
  "visibility" : {
    "controlling_field" : "04b5e1db-e0f0-c594-9a61-272cebd4a244",
    "controlling_field_path" : null,
    "controlling_value_regex" : "true",
    "property" : null,
    "operator" : "EQUAL",
    "access" : null
  },
  "allow_custom_email_addresses" : true,
  "type" : "email"
}, {
  "id" : "9a00b7bd-84a4-53d5-9820-4394c3070de3",
  "name" : "follow_up_type_simple",
  "display_width" : null,
  "label" : "Send a follow-up email",
  "help_text" : "To send a follow-up email, make sure the 'Set contacts created as marketing contacts’ setting is turned on. You can manage this in options. <a href='https://knowledge.hubspot.com/contacts/set-contacts-as-marketing#set-the-default-marketing-status-for-new-contacts'>Learn more</a>",
  "required" : false,
  "locked" : false,
  "display" : "checkbox",
  "type" : "boolean",
  "default" : false
}, {
  "id" : "6a0da814-1102-befc-ceb6-a63f1b1bfeea",
  "name" : "simple_email_for_live_id",
  "display_width" : null,
  "label" : "Email",
  "required" : false,
  "locked" : false,
  "visibility" : {
    "controlling_field" : "9a00b7bd-84a4-53d5-9820-4394c3070de3",
    "controlling_field_path" : null,
    "controlling_value_regex" : "true",
    "property" : null,
    "operator" : "EQUAL",
    "access" : null
  },
  "type" : "followupemail"
}, {
  "id" : "7de0bd55-5460-c958-cfab-7f0bc248ca2c",
  "name" : "enable_animation",
  "display_width" : null,
  "label" : "Enable Animation",
  "required" : false,
  "locked" : false,
  "display" : "checkbox",
  "type" : "boolean",
  "default" : true
}, {
  "id" : "2c0235e4-867c-64df-5896-28e5ac29cfe1",
  "name" : "animation_settings",
  "display_width" : null,
  "label" : "Animation Settings",
  "required" : false,
  "locked" : false,
  "visibility" : {
    "controlling_field" : "7de0bd55-5460-c958-cfab-7f0bc248ca2c",
    "controlling_field_path" : null,
    "controlling_value_regex" : "true",
    "property" : null,
    "operator" : "EQUAL",
    "access" : null
  },
  "children" : [ {
    "id" : "8503cfea-3358-0358-e570-40d8ca3df92e",
    "name" : "animation_type",
    "display_width" : null,
    "label" : "Animation Type",
    "required" : true,
    "locked" : false,
    "display" : "select",
    "choices" : [ [ "default", "default" ], [ "fade", "fade" ], [ "fade-up", "fade-up" ], [ "fade-down", "fade-down" ], [ "fade-left", "fade-left" ], [ "fade-right", "fade-right" ], [ "fade-up-right", "fade-up-right" ], [ "fade-up-left", "fade-up-left" ], [ "fade-down-right", "fade-down-right" ], [ "fade-down-left", "fade-down-left" ], [ "flip-up", "flip-up" ], [ "flip-down", "flip-down" ], [ "flip-left", "flip-left" ], [ "flip-right", "flip-right" ], [ "slide-up", "slide-up" ], [ "slide-down", "slide-down" ], [ "slide-left", "slide-left" ], [ "slide-right", "slide-right" ], [ "zoom-in", "zoom-in" ], [ "zoom-in-up", "zoom-in-up" ], [ "zoom-in-down", "zoom-in-down" ], [ "zoom-in-left", "zoom-in-left" ], [ "zoom-in-right", "zoom-in-right" ], [ "zoom-out", "zoom-out" ], [ "zoom-out-up", "zoom-out-up" ], [ "zoom-out-down", "zoom-out-down" ], [ "zoom-out-left", "zoom-out-left" ], [ "zoom-out-right", "zoom-out-right" ] ],
    "multiple" : false,
    "reordering_enabled" : true,
    "preset" : null,
    "type" : "choice",
    "default" : "default"
  }, {
    "id" : "ebeeefd2-eae7-fd26-d377-029dcee230ee",
    "name" : "animation_delay",
    "display_width" : null,
    "label" : "Animation Delay",
    "required" : true,
    "locked" : false,
    "display" : "text",
    "min" : 0,
    "max" : 3000,
    "step" : 50,
    "suffix" : "ms",
    "type" : "number",
    "default" : 150
  }, {
    "id" : "45a68b9c-3fdd-5091-ed45-4c6a8164fc2a",
    "name" : "override_default_animation_duration",
    "display_width" : null,
    "label" : "Override Default Animation Duration",
    "required" : false,
    "locked" : false,
    "display" : "checkbox",
    "type" : "boolean",
    "default" : false
  }, {
    "id" : "ef49eaf9-b72c-f0d8-803c-84ef6e1d63c7",
    "name" : "animation_duration",
    "display_width" : null,
    "label" : "Animation Duration",
    "required" : true,
    "locked" : false,
    "visibility" : {
      "controlling_field" : "45a68b9c-3fdd-5091-ed45-4c6a8164fc2a",
      "controlling_field_path" : null,
      "controlling_value_regex" : "true",
      "property" : null,
      "operator" : "EQUAL",
      "access" : null
    },
    "display" : "text",
    "min" : 0,
    "max" : 3000,
    "step" : 50,
    "suffix" : "ms",
    "type" : "number",
    "default" : 600
  } ],
  "tab" : "CONTENT",
  "expanded" : false,
  "type" : "group",
  "default" : {
    "animation_type" : "default",
    "animation_delay" : 150,
    "override_default_animation_duration" : false,
    "animation_duration" : 600
  }
}, {
  "id" : "562c0f8a-022f-0bd9-7fc3-18bcb7569a7e",
  "name" : "enable_sticky_column",
  "display_width" : null,
  "label" : "Enable Sticky Column",
  "required" : false,
  "locked" : false,
  "display" : "checkbox",
  "type" : "boolean",
  "default" : false
}, {
  "id" : "12cda54c-b54f-5c77-d554-3fa310f3580a",
  "name" : "custom_class",
  "display_width" : null,
  "label" : "Custom Class",
  "required" : false,
  "locked" : false,
  "validation_regex" : "",
  "allow_new_line" : false,
  "show_emoji_picker" : false,
  "type" : "text"
}, {
  "id" : "b27ba231-bbae-0ab7-1bbf-639610edc032",
  "name" : "style",
  "display_width" : null,
  "label" : "Style",
  "required" : false,
  "locked" : false,
  "children" : [ {
    "id" : "64e0f4e3-d20d-2c3d-4cb6-66064aef0ce5",
    "name" : "spacing",
    "display_width" : null,
    "label" : "Spacing",
    "required" : false,
    "locked" : false,
    "children" : [ {
      "id" : "4307c80e-e1ca-f5ce-5f55-f345f318bce1",
      "name" : "spacing",
      "display_width" : null,
      "label" : "Spacing",
      "required" : false,
      "locked" : false,
      "type" : "spacing",
      "default" : { }
    } ],
    "tab" : "STYLE",
    "expanded" : false,
    "type" : "group",
    "default" : {
      "spacing" : { }
    }
  }, {
    "id" : "4b56f0c7-4686-6742-a02d-84291b09102d",
    "name" : "background",
    "display_width" : null,
    "label" : "Background",
    "required" : false,
    "locked" : false,
    "children" : [ {
      "id" : "fb41daed-c23e-28fa-b03a-5cafee8d31b4",
      "name" : "background_type",
      "display_width" : null,
      "label" : "Background Type",
      "required" : false,
      "locked" : false,
      "display" : "select",
      "choices" : [ [ "none", "None" ], [ "color", "Color" ], [ "gradient", "Gradient" ], [ "image", "Image" ] ],
      "multiple" : false,
      "reordering_enabled" : true,
      "preset" : null,
      "type" : "choice"
    }, {
      "id" : "2cff840d-6e62-f431-52a7-2a169d44a1e9",
      "name" : "background_color",
      "display_width" : null,
      "label" : "Background Color",
      "required" : false,
      "locked" : false,
      "visibility" : {
        "controlling_field" : "fb41daed-c23e-28fa-b03a-5cafee8d31b4",
        "controlling_field_path" : null,
        "controlling_value_regex" : "color",
        "property" : null,
        "operator" : "EQUAL",
        "access" : null
      },
      "type" : "color",
      "default" : {
        "color" : null,
        "opacity" : null
      }
    }, {
      "id" : "b014b578-6476-1a48-2165-c200b4b62d44",
      "name" : "background_gradient",
      "display_width" : null,
      "label" : "Background Gradient",
      "required" : false,
      "locked" : false,
      "visibility" : {
        "controlling_field" : "fb41daed-c23e-28fa-b03a-5cafee8d31b4",
        "controlling_field_path" : null,
        "controlling_value_regex" : "gradient",
        "property" : null,
        "operator" : "EQUAL",
        "access" : null
      },
      "type" : "gradient",
      "default" : { }
    }, {
      "id" : "2f53d326-cfa5-d9f3-4aa7-ab031e6338f8",
      "name" : "background_image",
      "display_width" : null,
      "label" : "Background Image",
      "required" : false,
      "locked" : false,
      "visibility" : {
        "controlling_field" : "fb41daed-c23e-28fa-b03a-5cafee8d31b4",
        "controlling_field_path" : null,
        "controlling_value_regex" : "image",
        "property" : null,
        "operator" : "EQUAL",
        "access" : null
      },
      "type" : "backgroundimage",
      "default" : {
        "src" : "",
        "background_position" : "MIDDLE_CENTER",
        "background_size" : "cover"
      }
    } ],
    "tab" : "STYLE",
    "expanded" : false,
    "type" : "group",
    "default" : {
      "background_color" : {
        "color" : null,
        "opacity" : null
      },
      "background_gradient" : { },
      "background_image" : {
        "src" : "",
        "background_position" : "MIDDLE_CENTER",
        "background_size" : "cover"
      }
    }
  }, {
    "id" : "e7d7f58e-1872-d5ec-c641-1ece37f0ebdd",
    "name" : "button",
    "display_width" : null,
    "label" : "Button",
    "required" : false,
    "locked" : false,
    "children" : [ {
      "id" : "63bd41ed-557d-513c-5f66-1b290a082359",
      "name" : "font",
      "display_width" : null,
      "label" : "Font",
      "required" : false,
      "locked" : false,
      "load_external_fonts" : true,
      "type" : "font",
      "default" : { }
    }, {
      "id" : "c3a669b5-5a5b-39bf-e4c8-47d5529bbfe2",
      "name" : "text_transform",
      "display_width" : null,
      "label" : "Text Transform",
      "required" : false,
      "locked" : false,
      "display" : "select",
      "choices" : [ [ "none", "None" ], [ "uppercase", "Uppercase" ] ],
      "multiple" : false,
      "reordering_enabled" : true,
      "preset" : null,
      "type" : "choice"
    }, {
      "id" : "d7755983-2bb8-742e-3afd-948f46f93abe",
      "name" : "letter_spacing",
      "display_width" : null,
      "label" : "Letter Spacing",
      "required" : false,
      "locked" : false,
      "display" : "slider",
      "max" : 5,
      "step" : 1,
      "suffix" : "px",
      "type" : "number"
    }, {
      "id" : "2ec82934-438a-614d-5035-18b0ce455ef8",
      "name" : "background_color",
      "display_width" : null,
      "label" : "Background Color",
      "required" : false,
      "locked" : false,
      "type" : "color",
      "default" : {
        "color" : null,
        "opacity" : null
      }
    }, {
      "id" : "de87ec98-445c-3db5-48a3-c483c9536ff9",
      "name" : "border_color",
      "display_width" : null,
      "label" : "Border Color",
      "required" : false,
      "locked" : false,
      "type" : "color",
      "default" : {
        "color" : null,
        "opacity" : null
      }
    }, {
      "id" : "0b471176-7e48-61f7-606d-914c32a73ea9",
      "name" : "border_width",
      "display_width" : null,
      "label" : "Border Width",
      "required" : false,
      "locked" : false,
      "display" : "slider",
      "min" : 0,
      "max" : 20,
      "step" : 1,
      "suffix" : "px",
      "type" : "number"
    }, {
      "id" : "ee78e855-7587-df78-ceb2-7f10731cd04f",
      "name" : "border_radius",
      "display_width" : null,
      "label" : "Border Radius",
      "required" : false,
      "locked" : false,
      "display" : "slider",
      "min" : 0,
      "step" : 1,
      "suffix" : "px",
      "type" : "number"
    }, {
      "id" : "71db9a2e-3eba-b76c-5982-4a4ccd85c4fc",
      "name" : "horizontal_padding",
      "display_width" : null,
      "label" : "Horizontal Padding",
      "required" : false,
      "locked" : false,
      "display" : "slider",
      "min" : 0,
      "step" : 1,
      "suffix" : "px",
      "type" : "number"
    }, {
      "id" : "95cebc60-6d2a-9808-d95c-b7741410b8ff",
      "name" : "vertical_padding",
      "display_width" : null,
      "label" : "Vertical Padding",
      "required" : false,
      "locked" : false,
      "display" : "slider",
      "min" : 0,
      "step" : 1,
      "suffix" : "px",
      "type" : "number"
    }, {
      "id" : "7815dcc1-8191-4bca-eab0-0fcdee95f3bd",
      "name" : "text_color_hover",
      "display_width" : null,
      "label" : "Text Color (Hover)",
      "required" : false,
      "locked" : false,
      "type" : "color",
      "default" : {
        "color" : null,
        "opacity" : null
      }
    }, {
      "id" : "d32c1006-8f54-6e41-772f-b7c3ac8c9bd1",
      "name" : "border_color_hover",
      "display_width" : null,
      "label" : "Border Color (Hover)",
      "required" : false,
      "locked" : false,
      "type" : "color",
      "default" : {
        "color" : null,
        "opacity" : null
      }
    }, {
      "id" : "2c138cc7-2691-cea4-416e-7df0394c5784",
      "name" : "background_color_hover",
      "display_width" : null,
      "label" : "Background Color (Hover)",
      "required" : false,
      "locked" : false,
      "type" : "color",
      "default" : {
        "color" : null,
        "opacity" : null
      }
    }, {
      "id" : "93f7bd05-0e46-a06b-2ed6-9809cfdef9a0",
      "name" : "border_radius_hover",
      "display_width" : null,
      "label" : "Border Radius (Hover)",
      "required" : false,
      "locked" : false,
      "display" : "slider",
      "min" : 0,
      "step" : 1,
      "suffix" : "px",
      "type" : "number"
    } ],
    "tab" : "STYLE",
    "expanded" : false,
    "type" : "group",
    "default" : {
      "font" : { },
      "background_color" : {
        "color" : null,
        "opacity" : null
      },
      "border_color" : {
        "color" : null,
        "opacity" : null
      },
      "text_color_hover" : {
        "color" : null,
        "opacity" : null
      },
      "border_color_hover" : {
        "color" : null,
        "opacity" : null
      },
      "background_color_hover" : {
        "color" : null,
        "opacity" : null
      }
    }
  }, {
    "id" : "e86b1f94-03c6-7667-40f4-4195b0e7ab75",
    "name" : "custom_styling",
    "display_width" : null,
    "label" : "Custom Styling",
    "required" : false,
    "locked" : false,
    "children" : [ {
      "id" : "6cc24033-bb35-5ac8-f220-d1e7ded18e50",
      "name" : "header_text_color",
      "display_width" : null,
      "label" : "Header Text Color",
      "required" : false,
      "locked" : false,
      "type" : "color",
      "default" : {
        "color" : null,
        "opacity" : null
      }
    }, {
      "id" : "a91c19d3-56a2-2411-a06b-5c2cf28c42eb",
      "name" : "header_background_color",
      "display_width" : null,
      "label" : "Header Background Color",
      "required" : false,
      "locked" : false,
      "type" : "color",
      "default" : {
        "color" : null,
        "opacity" : null
      }
    }, {
      "id" : "e0236163-4e73-1e7d-b9c8-ef7332351e69",
      "name" : "form_border_color",
      "display_width" : null,
      "label" : "Form Border Color",
      "required" : false,
      "locked" : false,
      "type" : "color",
      "default" : {
        "color" : null,
        "opacity" : null
      }
    }, {
      "id" : "b3af7ed2-5d36-7f84-f8d5-6fec571f6d10",
      "name" : "form_border_width",
      "display_width" : null,
      "label" : "Form Border Width",
      "required" : false,
      "locked" : false,
      "display" : "slider",
      "min" : 0,
      "max" : 20,
      "step" : 1,
      "suffix" : "px",
      "type" : "number"
    }, {
      "id" : "e4becb99-52fb-c4c6-6005-b01934f27dab",
      "name" : "form_border_radius",
      "display_width" : null,
      "label" : "Form Border Radius",
      "required" : false,
      "locked" : false,
      "display" : "slider",
      "min" : 0,
      "step" : 1,
      "suffix" : "px",
      "type" : "number"
    }, {
      "id" : "fff8628f-b87e-33ee-988a-d4b4de8dbb77",
      "name" : "label_color",
      "display_width" : null,
      "label" : "Label Color",
      "required" : false,
      "locked" : false,
      "type" : "color",
      "default" : {
        "color" : null,
        "opacity" : null
      }
    }, {
      "id" : "0b8efd86-2bf9-adc0-4e53-4d4c4892903c",
      "name" : "field_text_color",
      "display_width" : null,
      "label" : "Field Text Color",
      "required" : false,
      "locked" : false,
      "type" : "color",
      "default" : {
        "color" : null,
        "opacity" : null
      }
    }, {
      "id" : "70fab7e6-93ef-9392-1f16-f174443b883a",
      "name" : "field_background_color",
      "display_width" : null,
      "label" : "Field Background Color",
      "required" : false,
      "locked" : false,
      "type" : "color",
      "default" : {
        "color" : null,
        "opacity" : null
      }
    }, {
      "id" : "7148e9d2-9bf1-e492-6b26-02df185f8acf",
      "name" : "field_border_color",
      "display_width" : null,
      "label" : "Field Border Color",
      "required" : false,
      "locked" : false,
      "type" : "color",
      "default" : {
        "color" : null,
        "opacity" : null
      }
    }, {
      "id" : "9f01e829-dd46-1ffa-e83c-f4041f72dcd6",
      "name" : "field_border_color_focus",
      "display_width" : null,
      "label" : "Field Border Color (Focus)",
      "required" : false,
      "locked" : false,
      "type" : "color",
      "default" : {
        "color" : null,
        "opacity" : null
      }
    } ],
    "tab" : "STYLE",
    "expanded" : false,
    "type" : "group",
    "default" : {
      "header_text_color" : {
        "color" : null,
        "opacity" : null
      },
      "header_background_color" : {
        "color" : null,
        "opacity" : null
      },
      "form_border_color" : {
        "color" : null,
        "opacity" : null
      },
      "label_color" : {
        "color" : null,
        "opacity" : null
      },
      "field_text_color" : {
        "color" : null,
        "opacity" : null
      },
      "field_background_color" : {
        "color" : null,
        "opacity" : null
      },
      "field_border_color" : {
        "color" : null,
        "opacity" : null
      },
      "field_border_color_focus" : {
        "color" : null,
        "opacity" : null
      }
    }
  } ],
  "tab" : "STYLE",
  "expanded" : false,
  "type" : "group",
  "default" : {
    "spacing" : {
      "spacing" : { }
    },
    "background" : {
      "background_color" : {
        "color" : null,
        "opacity" : null
      },
      "background_gradient" : { },
      "background_image" : {
        "src" : "",
        "background_position" : "MIDDLE_CENTER",
        "background_size" : "cover"
      }
    },
    "button" : {
      "font" : { },
      "background_color" : {
        "color" : null,
        "opacity" : null
      },
      "border_color" : {
        "color" : null,
        "opacity" : null
      },
      "text_color_hover" : {
        "color" : null,
        "opacity" : null
      },
      "border_color_hover" : {
        "color" : null,
        "opacity" : null
      },
      "background_color_hover" : {
        "color" : null,
        "opacity" : null
      }
    },
    "custom_styling" : {
      "header_text_color" : {
        "color" : null,
        "opacity" : null
      },
      "header_background_color" : {
        "color" : null,
        "opacity" : null
      },
      "form_border_color" : {
        "color" : null,
        "opacity" : null
      },
      "label_color" : {
        "color" : null,
        "opacity" : null
      },
      "field_text_color" : {
        "color" : null,
        "opacity" : null
      },
      "field_background_color" : {
        "color" : null,
        "opacity" : null
      },
      "field_border_color" : {
        "color" : null,
        "opacity" : null
      },
      "field_border_color_focus" : {
        "color" : null,
        "opacity" : null
      }
    }
  }
}, {
  "id" : "9e210f00-1541-6de2-10bf-8b5d8a0d1dcf",
  "name" : "custom_id",
  "display_width" : null,
  "label" : "Custom ID",
  "required" : false,
  "locked" : false,
  "validation_regex" : "",
  "allow_new_line" : false,
  "show_emoji_picker" : false,
  "type" : "text"
} ]