[ {
  "id" : "c96d717c-e130-a0ab-3d65-e8e3b6d2d895",
  "name" : "alignment",
  "display_width" : null,
  "label" : "Alignment",
  "required" : true,
  "locked" : false,
  "display" : "select",
  "choices" : [ [ "left", "Left" ], [ "center", "Center" ], [ "right", "Right" ] ],
  "multiple" : false,
  "reordering_enabled" : true,
  "preset" : null,
  "type" : "choice",
  "default" : "center"
}, {
  "id" : "0e8057ac-89a0-1573-b0e5-3b3af928ffb0",
  "name" : "background_color_pattern",
  "display_width" : null,
  "label" : "Background Color Pattern",
  "required" : true,
  "locked" : false,
  "display" : "select",
  "choices" : [ [ "horizontal-stripes", "Horizontal Stripes" ], [ "vertical-stripes", "Vertical Stripes" ], [ "horizontal-vertical-stripes", "Horizontal and Vertical Stripes" ], [ "single-color", "Single Color" ] ],
  "multiple" : false,
  "reordering_enabled" : true,
  "preset" : null,
  "type" : "choice",
  "default" : "horizontal-stripes"
}, {
  "id" : "2ae896e7-d0ba-cc25-8879-05bbdaefe896",
  "name" : "background_color_odd",
  "display_width" : null,
  "label" : "Background Color (Odd)",
  "inline_help_text" : "",
  "required" : true,
  "locked" : false,
  "display" : "select",
  "choices" : [ [ "default", "Default" ], [ "transparent", "Transparent" ], [ "primary", "Primary" ], [ "secondary", "Secondary" ], [ "dark", "Dark" ], [ "light", "Light" ], [ "dark-gray", "Dark Gray" ], [ "light-gray", "Light Gray" ] ],
  "multiple" : false,
  "reordering_enabled" : true,
  "preset" : null,
  "type" : "choice",
  "default" : "default"
}, {
  "id" : "938d8022-3898-aae3-8c06-6baee4de9776",
  "name" : "background_color_even",
  "display_width" : null,
  "label" : "Background Color (Even)",
  "inline_help_text" : "",
  "required" : true,
  "locked" : false,
  "visibility" : {
    "controlling_field" : null,
    "controlling_field_path" : "background_color_pattern",
    "controlling_value_regex" : "horizontal-zebra|vertical-zebra|horizontal-vertical-zebra",
    "property" : null,
    "operator" : "MATCHES_REGEX",
    "access" : null
  },
  "display" : "select",
  "choices" : [ [ "default", "Default" ], [ "transparent", "Transparent" ], [ "primary", "Primary" ], [ "secondary", "Secondary" ], [ "dark", "Dark" ], [ "light", "Light" ], [ "dark-gray", "Dark Gray" ], [ "light-gray", "Light Gray" ] ],
  "multiple" : false,
  "reordering_enabled" : true,
  "preset" : null,
  "type" : "choice",
  "default" : "default"
}, {
  "id" : "6202cc35-2d02-3d04-456c-3df71d34cc8e",
  "name" : "border_pattern",
  "display_width" : null,
  "label" : "Border Pattern",
  "required" : true,
  "locked" : false,
  "display" : "select",
  "choices" : [ [ "no-borders", "No Borders" ], [ "horizontal-borders", "Horizontal Borders" ], [ "vertical-borders", "Vertical Borders" ], [ "horizontal-vertical-borders", "Horizontal and Vertical Borders" ] ],
  "multiple" : false,
  "reordering_enabled" : true,
  "preset" : null,
  "type" : "choice",
  "default" : "horizontal-vertical-borders"
}, {
  "id" : "a622a780-70e4-dab8-4014-2a8ce7c4ab42",
  "name" : "enable_outer_border",
  "display_width" : null,
  "label" : "Enable Outer Border",
  "required" : false,
  "locked" : false,
  "display" : "checkbox",
  "type" : "boolean",
  "default" : true
}, {
  "id" : "1397ab01-612e-f87f-35f1-952f654bf985",
  "name" : "table_header",
  "display_width" : null,
  "label" : "Header",
  "required" : false,
  "locked" : false,
  "children" : [ {
    "id" : "ac9d15c0-7dba-338e-b22a-e1137e395061",
    "name" : "alignment",
    "display_width" : null,
    "label" : "Alignment",
    "required" : true,
    "locked" : false,
    "display" : "select",
    "choices" : [ [ "left", "Left" ], [ "center", "Center" ], [ "right", "Right" ] ],
    "multiple" : false,
    "reordering_enabled" : true,
    "preset" : null,
    "type" : "choice",
    "default" : "center"
  }, {
    "id" : "3aa31f94-cd96-a85e-6063-b6149dbeeb90",
    "name" : "background_color",
    "display_width" : null,
    "label" : "Background Color",
    "inline_help_text" : "",
    "required" : true,
    "locked" : false,
    "display" : "select",
    "choices" : [ [ "default", "Default" ], [ "transparent", "Transparent" ], [ "primary", "Primary" ], [ "secondary", "Secondary" ], [ "dark", "Dark" ], [ "light", "Light" ], [ "dark-gray", "Dark Gray" ], [ "light-gray", "Light Gray" ] ],
    "multiple" : false,
    "reordering_enabled" : true,
    "preset" : null,
    "type" : "choice",
    "default" : "default"
  }, {
    "id" : "d434a3d5-e1a8-2521-bd8b-8f7033cfac95",
    "name" : "text_color",
    "display_width" : null,
    "label" : "Text Color",
    "required" : true,
    "locked" : false,
    "display" : "select",
    "choices" : [ [ "default", "Default" ], [ "body", "Body" ], [ "dark", "Dark" ], [ "light", "Light" ] ],
    "multiple" : false,
    "reordering_enabled" : true,
    "preset" : null,
    "type" : "choice",
    "default" : "default"
  }, {
    "id" : "dc519031-1bdf-94fc-6988-c8c9c89d883d",
    "name" : "row",
    "display_width" : null,
    "label" : "Row",
    "required" : false,
    "locked" : false,
    "occurrence" : {
      "min" : 1,
      "max" : null,
      "sorting_label_field" : "0bdd7a74-ef77-8129-a63d-6dec4f5d3404",
      "default" : 1
    },
    "children" : [ {
      "id" : "0bdd7a74-ef77-8129-a63d-6dec4f5d3404",
      "name" : "cell",
      "display_width" : null,
      "label" : "Cell",
      "required" : false,
      "locked" : false,
      "occurrence" : {
        "min" : 1,
        "max" : null,
        "sorting_label_field" : "e2a7f941-94e3-bddb-c697-49aa9093c8ed",
        "default" : 5
      },
      "children" : [ {
        "id" : "e2a7f941-94e3-bddb-c697-49aa9093c8ed",
        "name" : "text",
        "display_width" : null,
        "label" : "Text",
        "required" : false,
        "locked" : false,
        "validation_regex" : "",
        "allow_new_line" : false,
        "show_emoji_picker" : false,
        "type" : "text",
        "default" : "Header cell text"
      }, {
        "id" : "fdd4ff44-e412-2eec-2462-cf28bea747c1",
        "name" : "col_span",
        "display_width" : null,
        "label" : "Column Span",
        "inline_help_text" : "Extend this Cell to multiple Columns",
        "required" : true,
        "locked" : false,
        "display" : "text",
        "min" : 1,
        "step" : 1,
        "type" : "number",
        "default" : 1
      }, {
        "id" : "5a65121c-39e0-e6f7-0972-dad44180e394",
        "name" : "row_span",
        "display_width" : null,
        "label" : "Row Span",
        "inline_help_text" : "Extend this Cell to multiple Rows",
        "required" : true,
        "locked" : false,
        "display" : "text",
        "min" : 1,
        "step" : 1,
        "type" : "number",
        "default" : 1
      } ],
      "tab" : "CONTENT",
      "expanded" : false,
      "type" : "group",
      "default" : [ {
        "text" : "Header cell text",
        "col_span" : 1,
        "row_span" : 1
      }, {
        "text" : "Header cell text",
        "col_span" : 1,
        "row_span" : 1
      }, {
        "text" : "Header cell text",
        "col_span" : 1,
        "row_span" : 1
      }, {
        "text" : "Header cell text",
        "col_span" : 1,
        "row_span" : 1
      }, {
        "text" : "Header cell text",
        "col_span" : 1,
        "row_span" : 1
      } ]
    } ],
    "tab" : "CONTENT",
    "expanded" : false,
    "type" : "group",
    "default" : [ {
      "cell" : [ {
        "text" : "Header cell text",
        "col_span" : 1,
        "row_span" : 1
      }, {
        "text" : "Header cell text",
        "col_span" : 1,
        "row_span" : 1
      }, {
        "text" : "Header cell text",
        "col_span" : 1,
        "row_span" : 1
      }, {
        "text" : "Header cell text",
        "col_span" : 1,
        "row_span" : 1
      }, {
        "text" : "Header cell text",
        "col_span" : 1,
        "row_span" : 1
      } ]
    } ]
  } ],
  "tab" : "CONTENT",
  "expanded" : false,
  "type" : "group",
  "default" : {
    "alignment" : "center",
    "background_color" : "default",
    "text_color" : "default",
    "row" : [ {
      "cell" : [ {
        "text" : "Header cell text",
        "col_span" : 1,
        "row_span" : 1
      }, {
        "text" : "Header cell text",
        "col_span" : 1,
        "row_span" : 1
      }, {
        "text" : "Header cell text",
        "col_span" : 1,
        "row_span" : 1
      }, {
        "text" : "Header cell text",
        "col_span" : 1,
        "row_span" : 1
      }, {
        "text" : "Header cell text",
        "col_span" : 1,
        "row_span" : 1
      } ]
    } ]
  }
}, {
  "id" : "f8b6bc9f-c41a-2f82-4d67-bdf15802d18e",
  "name" : "table_body",
  "display_width" : null,
  "label" : "Body",
  "required" : false,
  "locked" : false,
  "children" : [ {
    "id" : "6db8c873-788c-85b1-0636-538a8282874a",
    "name" : "alignment",
    "display_width" : null,
    "label" : "Alignment",
    "required" : true,
    "locked" : false,
    "display" : "select",
    "choices" : [ [ "left", "Left" ], [ "center", "Center" ], [ "right", "Right" ] ],
    "multiple" : false,
    "reordering_enabled" : true,
    "preset" : null,
    "type" : "choice",
    "default" : "center"
  }, {
    "id" : "b6926451-08fb-c924-f824-085eb7932f44",
    "name" : "text_color",
    "display_width" : null,
    "label" : "Text Color",
    "required" : true,
    "locked" : false,
    "display" : "select",
    "choices" : [ [ "default", "Default" ], [ "body", "Body" ], [ "dark", "Dark" ], [ "light", "Light" ] ],
    "multiple" : false,
    "reordering_enabled" : true,
    "preset" : null,
    "type" : "choice",
    "default" : "default"
  }, {
    "id" : "03aa940c-4cdc-1ecb-5590-038dc998118c",
    "name" : "row",
    "display_width" : null,
    "label" : "Row",
    "required" : false,
    "locked" : false,
    "occurrence" : {
      "min" : 1,
      "max" : null,
      "sorting_label_field" : "0767cc6a-3d2b-e676-9600-86269f7b33a6",
      "default" : 5
    },
    "children" : [ {
      "id" : "0767cc6a-3d2b-e676-9600-86269f7b33a6",
      "name" : "cell",
      "display_width" : null,
      "label" : "Cell",
      "required" : false,
      "locked" : false,
      "occurrence" : {
        "min" : 1,
        "max" : null,
        "sorting_label_field" : "e2a7f941-94e3-bddb-c697-49aa9093c8ed",
        "default" : 5
      },
      "children" : [ {
        "id" : "ca8cfafd-341a-b0d0-848e-65c647ae1618",
        "name" : "text",
        "display_width" : null,
        "label" : "Text",
        "required" : false,
        "locked" : false,
        "validation_regex" : "",
        "allow_new_line" : false,
        "show_emoji_picker" : false,
        "type" : "text",
        "default" : "Cell text"
      }, {
        "id" : "28e0d5ac-e59b-b21c-f27f-e1a7a6a91067",
        "name" : "col_span",
        "display_width" : null,
        "label" : "Column Span",
        "inline_help_text" : "Extend this Cell to multiple Columns",
        "required" : true,
        "locked" : false,
        "display" : "text",
        "min" : 1,
        "step" : 1,
        "type" : "number",
        "default" : 1
      }, {
        "id" : "d96930df-b498-d35d-1134-10ec437bdf53",
        "name" : "row_span",
        "display_width" : null,
        "label" : "Row Span",
        "inline_help_text" : "Extend this Cell to multiple Rows",
        "required" : true,
        "locked" : false,
        "display" : "text",
        "min" : 1,
        "step" : 1,
        "type" : "number",
        "default" : 1
      } ],
      "tab" : "CONTENT",
      "expanded" : false,
      "type" : "group",
      "default" : [ {
        "text" : "Cell text",
        "col_span" : 1,
        "row_span" : 1
      }, {
        "text" : "Cell text",
        "col_span" : 1,
        "row_span" : 1
      }, {
        "text" : "Cell text",
        "col_span" : 1,
        "row_span" : 1
      }, {
        "text" : "Cell text",
        "col_span" : 1,
        "row_span" : 1
      }, {
        "text" : "Cell text",
        "col_span" : 1,
        "row_span" : 1
      } ]
    } ],
    "tab" : "CONTENT",
    "expanded" : false,
    "type" : "group",
    "default" : [ {
      "cell" : [ {
        "text" : "Cell text",
        "col_span" : 1,
        "row_span" : 1
      }, {
        "text" : "Cell text",
        "col_span" : 1,
        "row_span" : 1
      }, {
        "text" : "Cell text",
        "col_span" : 1,
        "row_span" : 1
      }, {
        "text" : "Cell text",
        "col_span" : 1,
        "row_span" : 1
      }, {
        "text" : "Cell text",
        "col_span" : 1,
        "row_span" : 1
      } ]
    }, {
      "cell" : [ {
        "text" : "Cell text",
        "col_span" : 1,
        "row_span" : 1
      }, {
        "text" : "Cell text",
        "col_span" : 1,
        "row_span" : 1
      }, {
        "text" : "Cell text",
        "col_span" : 1,
        "row_span" : 1
      }, {
        "text" : "Cell text",
        "col_span" : 1,
        "row_span" : 1
      }, {
        "text" : "Cell text",
        "col_span" : 1,
        "row_span" : 1
      } ]
    }, {
      "cell" : [ {
        "text" : "Cell text",
        "col_span" : 1,
        "row_span" : 1
      }, {
        "text" : "Cell text",
        "col_span" : 1,
        "row_span" : 1
      }, {
        "text" : "Cell text",
        "col_span" : 1,
        "row_span" : 1
      }, {
        "text" : "Cell text",
        "col_span" : 1,
        "row_span" : 1
      }, {
        "text" : "Cell text",
        "col_span" : 1,
        "row_span" : 1
      } ]
    }, {
      "cell" : [ {
        "text" : "Cell text",
        "col_span" : 1,
        "row_span" : 1
      }, {
        "text" : "Cell text",
        "col_span" : 1,
        "row_span" : 1
      }, {
        "text" : "Cell text",
        "col_span" : 1,
        "row_span" : 1
      }, {
        "text" : "Cell text",
        "col_span" : 1,
        "row_span" : 1
      }, {
        "text" : "Cell text",
        "col_span" : 1,
        "row_span" : 1
      } ]
    }, {
      "cell" : [ {
        "text" : "Cell text",
        "col_span" : 1,
        "row_span" : 1
      }, {
        "text" : "Cell text",
        "col_span" : 1,
        "row_span" : 1
      }, {
        "text" : "Cell text",
        "col_span" : 1,
        "row_span" : 1
      }, {
        "text" : "Cell text",
        "col_span" : 1,
        "row_span" : 1
      }, {
        "text" : "Cell text",
        "col_span" : 1,
        "row_span" : 1
      } ]
    } ]
  } ],
  "tab" : "CONTENT",
  "expanded" : false,
  "type" : "group",
  "default" : {
    "alignment" : "center",
    "text_color" : "default",
    "row" : [ {
      "cell" : [ {
        "text" : "Cell text",
        "col_span" : 1,
        "row_span" : 1
      }, {
        "text" : "Cell text",
        "col_span" : 1,
        "row_span" : 1
      }, {
        "text" : "Cell text",
        "col_span" : 1,
        "row_span" : 1
      }, {
        "text" : "Cell text",
        "col_span" : 1,
        "row_span" : 1
      }, {
        "text" : "Cell text",
        "col_span" : 1,
        "row_span" : 1
      } ]
    }, {
      "cell" : [ {
        "text" : "Cell text",
        "col_span" : 1,
        "row_span" : 1
      }, {
        "text" : "Cell text",
        "col_span" : 1,
        "row_span" : 1
      }, {
        "text" : "Cell text",
        "col_span" : 1,
        "row_span" : 1
      }, {
        "text" : "Cell text",
        "col_span" : 1,
        "row_span" : 1
      }, {
        "text" : "Cell text",
        "col_span" : 1,
        "row_span" : 1
      } ]
    }, {
      "cell" : [ {
        "text" : "Cell text",
        "col_span" : 1,
        "row_span" : 1
      }, {
        "text" : "Cell text",
        "col_span" : 1,
        "row_span" : 1
      }, {
        "text" : "Cell text",
        "col_span" : 1,
        "row_span" : 1
      }, {
        "text" : "Cell text",
        "col_span" : 1,
        "row_span" : 1
      }, {
        "text" : "Cell text",
        "col_span" : 1,
        "row_span" : 1
      } ]
    }, {
      "cell" : [ {
        "text" : "Cell text",
        "col_span" : 1,
        "row_span" : 1
      }, {
        "text" : "Cell text",
        "col_span" : 1,
        "row_span" : 1
      }, {
        "text" : "Cell text",
        "col_span" : 1,
        "row_span" : 1
      }, {
        "text" : "Cell text",
        "col_span" : 1,
        "row_span" : 1
      }, {
        "text" : "Cell text",
        "col_span" : 1,
        "row_span" : 1
      } ]
    }, {
      "cell" : [ {
        "text" : "Cell text",
        "col_span" : 1,
        "row_span" : 1
      }, {
        "text" : "Cell text",
        "col_span" : 1,
        "row_span" : 1
      }, {
        "text" : "Cell text",
        "col_span" : 1,
        "row_span" : 1
      }, {
        "text" : "Cell text",
        "col_span" : 1,
        "row_span" : 1
      }, {
        "text" : "Cell text",
        "col_span" : 1,
        "row_span" : 1
      } ]
    } ]
  }
}, {
  "id" : "4e333592-323a-0974-b9ac-ac9cfeb614c0",
  "name" : "table_footer",
  "display_width" : null,
  "label" : "Footer",
  "required" : false,
  "locked" : false,
  "children" : [ {
    "id" : "d1afbe6b-ac39-0865-ca76-2bbb4365a76d",
    "name" : "alignment",
    "display_width" : null,
    "label" : "Alignment",
    "required" : true,
    "locked" : false,
    "display" : "select",
    "choices" : [ [ "left", "Left" ], [ "center", "Center" ], [ "right", "Right" ] ],
    "multiple" : false,
    "reordering_enabled" : true,
    "preset" : null,
    "type" : "choice",
    "default" : "center"
  }, {
    "id" : "8b890a83-9a0e-8fff-ec7c-5bd461b4d689",
    "name" : "background_color",
    "display_width" : null,
    "label" : "Background Color",
    "inline_help_text" : "",
    "required" : true,
    "locked" : false,
    "display" : "select",
    "choices" : [ [ "default", "Default" ], [ "transparent", "Transparent" ], [ "primary", "Primary" ], [ "secondary", "Secondary" ], [ "dark", "Dark" ], [ "light", "Light" ], [ "dark-gray", "Dark Gray" ], [ "light-gray", "Light Gray" ] ],
    "multiple" : false,
    "reordering_enabled" : true,
    "preset" : null,
    "type" : "choice",
    "default" : "default"
  }, {
    "id" : "7ef325e6-dbac-fb83-bb86-57582587d314",
    "name" : "text_color",
    "display_width" : null,
    "label" : "Text Color",
    "required" : true,
    "locked" : false,
    "display" : "select",
    "choices" : [ [ "default", "Default" ], [ "body", "Body" ], [ "dark", "Dark" ], [ "light", "Light" ] ],
    "multiple" : false,
    "reordering_enabled" : true,
    "preset" : null,
    "type" : "choice",
    "default" : "default"
  }, {
    "id" : "8f818238-fdcd-334f-3da7-53c60f2dc85c",
    "name" : "row",
    "display_width" : null,
    "label" : "Row",
    "required" : false,
    "locked" : false,
    "occurrence" : {
      "min" : 1,
      "max" : null,
      "sorting_label_field" : "0bdd7a74-ef77-8129-a63d-6dec4f5d3404",
      "default" : 1
    },
    "children" : [ {
      "id" : "c247e0bb-2670-17e9-72bb-42f83d673418",
      "name" : "cell",
      "display_width" : null,
      "label" : "Cell",
      "required" : false,
      "locked" : false,
      "occurrence" : {
        "min" : 1,
        "max" : null,
        "sorting_label_field" : "e2a7f941-94e3-bddb-c697-49aa9093c8ed",
        "default" : 5
      },
      "children" : [ {
        "id" : "5e1e3867-ca3b-bb91-cbf3-21706bd74b1b",
        "name" : "text",
        "display_width" : null,
        "label" : "Text",
        "required" : false,
        "locked" : false,
        "validation_regex" : "",
        "allow_new_line" : false,
        "show_emoji_picker" : false,
        "type" : "text",
        "default" : "Footer cell text"
      }, {
        "id" : "7f31745c-4e7a-2f4e-0ea2-eb8079615761",
        "name" : "col_span",
        "display_width" : null,
        "label" : "Column Span",
        "inline_help_text" : "Extend this Cell to multiple Columns",
        "required" : true,
        "locked" : false,
        "display" : "text",
        "min" : 1,
        "step" : 1,
        "type" : "number",
        "default" : 1
      }, {
        "id" : "e3e21ec8-96d3-45c1-96d1-80fd9fa88e06",
        "name" : "row_span",
        "display_width" : null,
        "label" : "Row Span",
        "inline_help_text" : "Extend this Cell to multiple Rows",
        "required" : true,
        "locked" : false,
        "display" : "text",
        "min" : 1,
        "step" : 1,
        "type" : "number",
        "default" : 1
      } ],
      "tab" : "CONTENT",
      "expanded" : false,
      "type" : "group",
      "default" : [ {
        "text" : "Footer cell text",
        "col_span" : 1,
        "row_span" : 1
      }, {
        "text" : "Footer cell text",
        "col_span" : 1,
        "row_span" : 1
      }, {
        "text" : "Footer cell text",
        "col_span" : 1,
        "row_span" : 1
      }, {
        "text" : "Footer cell text",
        "col_span" : 1,
        "row_span" : 1
      }, {
        "text" : "Footer cell text",
        "col_span" : 1,
        "row_span" : 1
      } ]
    } ],
    "tab" : "CONTENT",
    "expanded" : false,
    "type" : "group",
    "default" : [ {
      "cell" : [ {
        "text" : "Footer cell text",
        "col_span" : 1,
        "row_span" : 1
      }, {
        "text" : "Footer cell text",
        "col_span" : 1,
        "row_span" : 1
      }, {
        "text" : "Footer cell text",
        "col_span" : 1,
        "row_span" : 1
      }, {
        "text" : "Footer cell text",
        "col_span" : 1,
        "row_span" : 1
      }, {
        "text" : "Footer cell text",
        "col_span" : 1,
        "row_span" : 1
      } ]
    } ]
  } ],
  "tab" : "CONTENT",
  "expanded" : false,
  "type" : "group",
  "default" : {
    "alignment" : "center",
    "background_color" : "default",
    "text_color" : "default",
    "row" : [ {
      "cell" : [ {
        "text" : "Footer cell text",
        "col_span" : 1,
        "row_span" : 1
      }, {
        "text" : "Footer cell text",
        "col_span" : 1,
        "row_span" : 1
      }, {
        "text" : "Footer cell text",
        "col_span" : 1,
        "row_span" : 1
      }, {
        "text" : "Footer cell text",
        "col_span" : 1,
        "row_span" : 1
      }, {
        "text" : "Footer cell text",
        "col_span" : 1,
        "row_span" : 1
      } ]
    } ]
  }
}, {
  "id" : "fda2a04c-0b36-f1bd-14ea-9f9373631fe6",
  "name" : "enable_animation",
  "display_width" : null,
  "label" : "Enable Animation",
  "required" : false,
  "locked" : false,
  "display" : "checkbox",
  "type" : "boolean",
  "default" : true
}, {
  "id" : "99ce51bc-05fd-f145-fc2a-2282002d59a3",
  "name" : "animation_settings",
  "display_width" : null,
  "label" : "Animation Settings",
  "required" : false,
  "locked" : false,
  "visibility" : {
    "controlling_field" : "fda2a04c-0b36-f1bd-14ea-9f9373631fe6",
    "controlling_field_path" : null,
    "controlling_value_regex" : "true",
    "property" : null,
    "operator" : "EQUAL",
    "access" : null
  },
  "children" : [ {
    "id" : "b78601b7-308f-818b-f45e-d9edfa29c795",
    "name" : "animation_type",
    "display_width" : null,
    "label" : "Animation Type",
    "required" : true,
    "locked" : false,
    "display" : "select",
    "choices" : [ [ "default", "default" ], [ "fade", "fade" ], [ "fade-up", "fade-up" ], [ "fade-down", "fade-down" ], [ "fade-left", "fade-left" ], [ "fade-right", "fade-right" ], [ "fade-up-right", "fade-up-right" ], [ "fade-up-left", "fade-up-left" ], [ "fade-down-right", "fade-down-right" ], [ "fade-down-left", "fade-down-left" ], [ "flip-up", "flip-up" ], [ "flip-down", "flip-down" ], [ "flip-left", "flip-left" ], [ "flip-right", "flip-right" ], [ "slide-up", "slide-up" ], [ "slide-down", "slide-down" ], [ "slide-left", "slide-left" ], [ "slide-right", "slide-right" ], [ "zoom-in", "zoom-in" ], [ "zoom-in-up", "zoom-in-up" ], [ "zoom-in-down", "zoom-in-down" ], [ "zoom-in-left", "zoom-in-left" ], [ "zoom-in-right", "zoom-in-right" ], [ "zoom-out", "zoom-out" ], [ "zoom-out-up", "zoom-out-up" ], [ "zoom-out-down", "zoom-out-down" ], [ "zoom-out-left", "zoom-out-left" ], [ "zoom-out-right", "zoom-out-right" ] ],
    "multiple" : false,
    "reordering_enabled" : true,
    "preset" : null,
    "type" : "choice",
    "default" : "default"
  }, {
    "id" : "08c450cd-86de-1648-5546-e26ba3f3b6ea",
    "name" : "animation_delay",
    "display_width" : null,
    "label" : "Animation Delay",
    "required" : true,
    "locked" : false,
    "display" : "text",
    "min" : 0,
    "max" : 3000,
    "step" : 50,
    "suffix" : "ms",
    "type" : "number",
    "default" : 150
  }, {
    "id" : "5848a380-5a64-eb39-6055-059c4e039aca",
    "name" : "override_default_animation_duration",
    "display_width" : null,
    "label" : "Override Default Animation Duration",
    "required" : false,
    "locked" : false,
    "display" : "checkbox",
    "type" : "boolean",
    "default" : false
  }, {
    "id" : "7c7dc0e3-7641-df3b-7a55-d2e9e003c73c",
    "name" : "animation_duration",
    "display_width" : null,
    "label" : "Animation Duration",
    "required" : true,
    "locked" : false,
    "visibility" : {
      "controlling_field" : "5848a380-5a64-eb39-6055-059c4e039aca",
      "controlling_field_path" : null,
      "controlling_value_regex" : "true",
      "property" : null,
      "operator" : "EQUAL",
      "access" : null
    },
    "display" : "text",
    "min" : 0,
    "max" : 3000,
    "step" : 50,
    "suffix" : "ms",
    "type" : "number",
    "default" : 600
  } ],
  "tab" : "CONTENT",
  "expanded" : false,
  "type" : "group",
  "default" : {
    "animation_type" : "default",
    "animation_delay" : 150,
    "override_default_animation_duration" : false,
    "animation_duration" : 600
  }
}, {
  "id" : "050d41fa-348f-9250-8fd1-4a48f1339ccf",
  "name" : "enable_sticky_column",
  "display_width" : null,
  "label" : "Enable Sticky Column",
  "required" : false,
  "locked" : false,
  "display" : "checkbox",
  "type" : "boolean",
  "default" : false
}, {
  "id" : "a6202c67-fcdf-67d5-6d23-af1c4d4d2090",
  "name" : "custom_class",
  "display_width" : null,
  "label" : "Custom Class",
  "required" : false,
  "locked" : false,
  "validation_regex" : "",
  "allow_new_line" : false,
  "show_emoji_picker" : false,
  "type" : "text"
}, {
  "id" : "60f7a8d0-8287-025d-2cc3-4ce2985c5e05",
  "name" : "style",
  "display_width" : null,
  "label" : "Style",
  "required" : false,
  "locked" : false,
  "children" : [ {
    "id" : "560eeebc-9cb6-9768-71af-050baab4cefa",
    "name" : "spacing",
    "display_width" : null,
    "label" : "Spacing",
    "required" : false,
    "locked" : false,
    "children" : [ {
      "id" : "dfc13719-aad2-b1a5-3883-6066e1deead1",
      "name" : "spacing",
      "display_width" : null,
      "label" : "Spacing",
      "required" : false,
      "locked" : false,
      "type" : "spacing",
      "default" : { }
    } ],
    "tab" : "STYLE",
    "expanded" : false,
    "type" : "group",
    "default" : {
      "spacing" : { }
    }
  }, {
    "id" : "57c5b148-889e-ff38-21b2-1acb4d6bba77",
    "name" : "background",
    "display_width" : null,
    "label" : "Background",
    "required" : false,
    "locked" : false,
    "children" : [ {
      "id" : "3695734b-8cde-2ab5-c43d-c0b34b2dc6ab",
      "name" : "background_type",
      "display_width" : null,
      "label" : "Background Type",
      "required" : false,
      "locked" : false,
      "display" : "select",
      "choices" : [ [ "none", "None" ], [ "color", "Color" ], [ "gradient", "Gradient" ], [ "image", "Image" ] ],
      "multiple" : false,
      "reordering_enabled" : true,
      "preset" : null,
      "type" : "choice"
    }, {
      "id" : "d3bccb06-f936-4035-1f72-1eb10445e5d5",
      "name" : "background_color",
      "display_width" : null,
      "label" : "Background_Color",
      "required" : false,
      "locked" : false,
      "visibility" : {
        "controlling_field" : "3695734b-8cde-2ab5-c43d-c0b34b2dc6ab",
        "controlling_field_path" : null,
        "controlling_value_regex" : "color",
        "property" : null,
        "operator" : "EQUAL",
        "access" : null
      },
      "type" : "color",
      "default" : {
        "color" : null,
        "opacity" : null
      }
    }, {
      "id" : "fbfc12ff-f067-7362-7025-e8704542dfb5",
      "name" : "background_gradient",
      "display_width" : null,
      "label" : "Background Gradient",
      "required" : false,
      "locked" : false,
      "visibility" : {
        "controlling_field" : "3695734b-8cde-2ab5-c43d-c0b34b2dc6ab",
        "controlling_field_path" : null,
        "controlling_value_regex" : "gradient",
        "property" : null,
        "operator" : "EQUAL",
        "access" : null
      },
      "type" : "gradient",
      "default" : { }
    }, {
      "id" : "5982d2ed-94c0-63a3-482a-f477a3ba6d07",
      "name" : "background_image",
      "display_width" : null,
      "label" : "Background Image",
      "required" : false,
      "locked" : false,
      "visibility" : {
        "controlling_field" : "3695734b-8cde-2ab5-c43d-c0b34b2dc6ab",
        "controlling_field_path" : null,
        "controlling_value_regex" : "image",
        "property" : null,
        "operator" : "EQUAL",
        "access" : null
      },
      "type" : "backgroundimage",
      "default" : {
        "src" : "",
        "background_position" : "MIDDLE_CENTER",
        "background_size" : "cover"
      }
    } ],
    "tab" : "STYLE",
    "expanded" : false,
    "type" : "group",
    "default" : {
      "background_color" : {
        "color" : null,
        "opacity" : null
      },
      "background_gradient" : { },
      "background_image" : {
        "src" : "",
        "background_position" : "MIDDLE_CENTER",
        "background_size" : "cover"
      }
    }
  } ],
  "tab" : "STYLE",
  "expanded" : false,
  "type" : "group",
  "default" : {
    "spacing" : {
      "spacing" : { }
    },
    "background" : {
      "background_color" : {
        "color" : null,
        "opacity" : null
      },
      "background_gradient" : { },
      "background_image" : {
        "src" : "",
        "background_position" : "MIDDLE_CENTER",
        "background_size" : "cover"
      }
    }
  }
}, {
  "id" : "c0ef4e93-5e8e-126e-f535-105a52400a59",
  "name" : "custom_id",
  "display_width" : null,
  "label" : "Custom ID",
  "required" : false,
  "locked" : false,
  "validation_regex" : "",
  "allow_new_line" : false,
  "show_emoji_picker" : false,
  "type" : "text"
} ]