{
  "global" : false,
  "content_types" : [ "LANDING_PAGE", "SITE_PAGE", "BLOG_LISTING", "BLOG_POST" ],
  "icon" : "https://fs.hubspotusercontent00.net/hubfs/316759/B2B%20Engine/module-icons/icon-button.svg",
  "host_template_types" : [ "PAGE", "BLOG_POST", "BLOG_LISTING" ],
  "module_id" : 67317707809,
  "label" : "Button - B2B Engine",
  "is_available_for_new_content" : true
}