{
  "global" : false,
  "content_types" : [ "LANDING_PAGE", "SITE_PAGE" ],
  "icon" : "https://fs.hubspotusercontent00.net/hubfs/316759/B2B%20Engine/module-icons/icon-hero-banner.svg",
  "host_template_types" : [ "PAGE" ],
  "module_id" : 67323935520,
  "label" : "Hero Banner",
  "is_available_for_new_content" : true
}